{
    "$schema": "https://schema.management.azure.com/schemas/2015-01-01/deploymentParameters.json#",
    "contentVersion": "1.0.0.0",
    "parameters": {
        "appId": {
            "value": "fdb85683-1bd9-4327-b962-ae0875a4a403"
        },
        "appSecret": {
            "value": "50RfT23oP?xkU=[nHB:3PHSdUPw-TV=."
        },
        "botId": {
            "value": "4b10868e-0a46-43af-8464-7d67bd80585c"
        },
        "botSku": {
            "value": ""
        },
        "newAppServicePlanName": {
            "value": ""
        },
        "newAppServicePlanSku": {
            "value": {
                "name": "S1",
                "tier": "Standard",
                "size": "S1",
                "family": "S",
                "capacity": 1
            }
        },
        "appServicePlanLocation": {
            "value": ""
        },
        "existingAppServicePlan": {
            "value": ""
        },
        "newWebAppName": {
            "value": ""
        }
    }
}